…
cocktail_fix <- sep_cocktail %>% 
  mutate(ingredients = str_to_lower(ingredients))
cocktail_fix
```

```
## # A tibble: 223 x 9
##    name     abv  acid sugar type   index instructions        ingredients   ncotw
##    <chr>  <dbl> <dbl> <dbl> <chr>  <dbl> <chr>               <chr>         <chr>
##  1 Pisco~  12.1  0.68   7.2 eggwh~     5 Dry shake, shake w~ pisco         not ~
##  2 Pisco~  12.1  0.68   7.2 eggwh~     5 Dry shake, shake w~ egg white     not ~
##  3 Pisco~  12.1  0.68   7.2 eggwh~     5 Dry shake, shake w~ lime juice    not ~
##  4 Pisco~  12.1  0.68   7.2 eggwh~     5 Dry shake, shake w~ simple syrup  not ~
##  5 Pink ~  12.4  0.64   9   eggwh~     6 Dry shake, shake w~ plymouth gin  not ~
##  6 Pink ~  12.4  0.64   9   eggwh~     6 Dry shake, shake w~ egg white     not ~
##  7 Pink ~  12.4  0.64   9   eggwh~     6 Dry shake, shake w~ lemon juice   not ~
##  8 Pink ~  12.4  0.64   9   eggwh~     6 Dry shake, shake w~ grenadine     not ~
##  9 Pink ~  12.4  0.64   9   eggwh~     6 Dry shake, shake w~ simple syrup  not ~
## 10 Pink ~  12.4  0.64   9   eggwh~     6 Dry shake, shake w~ lairds apple~ not ~
## # ... with 213 more rows
```

## 3. All ingredients in alphabetical order

Before opening the bar, you need to find a reliable supplier that has all the ingredients. You need to send a list of all possible ingredients you will need. They don't need the quantities (i.e. how many of these are needed), just the names of the ingredients.


```r
ingredients_name <- cocktail_fix %>%
  arrange(ingredients) %>%
  distinct(ingredients)
ingredients_name
```

```
## # A tibble: 63 x 1
##    ingredients                   
##    <chr>                         
##  1 absinthe                      
##  2 absolut citron vodka          
##  3 agarclarified grapefruit juice
##  4 amer picon                    
##  5 angostura bitters             
##  6 apple brandy                  
##  7 benedictine                   
##  8 blanco tequila                
##  9 bourbon                       
## 10 campari                       
## # ... with 53 more rows
```
…
